<?xml version="1.0" encoding="UTF-8" standalone="no"?>
<!DOCTYPE svg PUBLIC "-//W3C//DTD SVG 20010904//EN"
"http://www.w3.org/TR/2001/REC-SVG-20010904/DTD/svg10.dtd"
[
 <!ATTLIST svg
  xmlns:xlink CDATA #FIXED "http://www.w3.org/1999/xlink">
]>
<!-- Created with Sodipodi ("http://www.sodipodi.com/") -->
<svg
   xmlns="http://www.w3.org/2000/svg"
   xmlns:xlink="http://www.w3.org/1999/xlink"
   version="1"
   x="0"
   y="0"
   width="125"
   height="125"
   id="svg101">
  <defs
     id="defs103" />
  <path
     d="M 6.2796 6.74281 L 6.2796 118.768 L 118.718 118.768 L 118.718 6.74281 L 6.2796 6.74281 z "
     style="font-size:12;fill:#999999;fill-rule:evenodd;stroke-width:0pt;"
     id="path326" />
  <path
     d="M 28.0629 20.7947 C 28.0889 20.4827 28.0889 20.3527 28.0889 20.1707 C 28.0889 18.7667 27.8809 17.4667 27.5429 16.4787 C 26.6069 13.9307 24.3449 12.3967 21.5109 12.3967 C 17.4809 12.3967 15.0109 15.3087 15.0109 20.0147 C 15.0109 24.5127 17.4549 27.2687 21.4329 27.2687 C 24.5789 27.2687 27.1269 25.4747 27.9329 22.7187 L 24.3449 22.7187 C 23.9029 23.8367 22.8889 24.4867 21.5629 24.4867 C 20.5229 24.4867 19.6909 24.0447 19.1709 23.2647 C 18.8329 22.7447 18.7029 22.1207 18.6509 20.7947 L 28.0629 20.7947 z M 18.7029 18.3767 C 18.9369 16.2447 19.8469 15.1787 21.4589 15.1787 C 22.3689 15.1787 23.2009 15.6207 23.7209 16.3487 C 24.0589 16.8687 24.2149 17.4147 24.2929 18.3767 L 18.7029 18.3767 z M 12.5929 7.7167 L 8.95287 7.7167 L 8.95287 26.6707 L 12.5929 26.6707 L 12.5929 7.7167 z M 5.52087 7.7167 L 1.62087 7.7167 L 1.62087 26.6707 L 5.52087 26.6707 L 5.52087 7.7167 z "
     transform="scale(4.19087,3.22443)"
     style="font-size:26;font-weight:bold;fill:#e2bd00;stroke-width:1pt;font-family:Helvetica;"
     id="path327" />
</svg>
