<?xml version="1.0" encoding="UTF-8" standalone="no"?>
<!-- Created with Sodipodi ("http://www.sodipodi.com/") -->
<svg
   xmlns:dc="http://purl.org/dc/elements/1.1/"
   xmlns:cc="http://web.resource.org/cc/"
   xmlns:rdf="http://www.w3.org/1999/02/22-rdf-syntax-ns#"
   xmlns:svg="http://www.w3.org/2000/svg"
   xmlns="http://www.w3.org/2000/svg"
   xmlns:sodipodi="http://sodipodi.sourceforge.net/DTD/sodipodi-0.dtd"
   xmlns:inkscape="http://www.inkscape.org/namespaces/inkscape"
   version="1"
   x="0"
   y="0"
   width="125"
   height="125"
   id="svg101"
   sodipodi:version="0.32"
   sodipodi:docname="tryptophan.svg"
   sodipodi:docbase="/home/rusconi/devel/massxpert/data/pol-chem-defs/protein-1-letter"
   inkscape:version="0.45.1"
   inkscape:output_extension="org.inkscape.output.svg.inkscape">
  <metadata
     id="metadata2904">
    <rdf:RDF>
      <cc:Work
         rdf:about="">
        <dc:format>image/svg+xml</dc:format>
        <dc:type
           rdf:resource="http://purl.org/dc/dcmitype/StillImage" />
      </cc:Work>
    </rdf:RDF>
  </metadata>
  <sodipodi:namedview
     id="base"
     inkscape:zoom="3.024"
     inkscape:cx="62.5"
     inkscape:cy="62.5"
     inkscape:window-width="745"
     inkscape:window-height="571"
     inkscape:window-x="755"
     inkscape:window-y="0"
     inkscape:current-layer="svg101" />
  <defs
     id="defs103" />
  <path
     id="path120"
     style="font-size:26px;font-weight:bold;fill:#74839b;stroke-width:1pt;font-family:Helvetica"
     d="M 93.660844,118.66139 L 118.01122,6.7638003 L 98.844339,6.7638003 L 85.704781,90.725368 L 71.480306,6.7638003 L 53.639439,6.7638003 L 40.017742,90.571874 L 26.395999,6.7638003 L 7.2291212,6.7638003 L 32.06168,118.66139 L 48.335397,118.66139 L 62.680419,31.322943 L 77.38708,118.66139 L 93.660844,118.66139 z " />
</svg>
