<?xml version="1.0" encoding="UTF-8" standalone="no"?>
<!-- Created with Sodipodi ("http://www.sodipodi.com/") -->
<svg
   xmlns:dc="http://purl.org/dc/elements/1.1/"
   xmlns:cc="http://creativecommons.org/ns#"
   xmlns:rdf="http://www.w3.org/1999/02/22-rdf-syntax-ns#"
   xmlns:svg="http://www.w3.org/2000/svg"
   xmlns="http://www.w3.org/2000/svg"
   xmlns:sodipodi="http://sodipodi.sourceforge.net/DTD/sodipodi-0.dtd"
   xmlns:inkscape="http://www.inkscape.org/namespaces/inkscape"
   version="1"
   x="0"
   y="0"
   width="125"
   height="125"
   id="svg101"
   sodipodi:version="0.32"
   inkscape:version="0.46"
   sodipodi:docname="ps-radenine.svg"
   inkscape:output_extension="org.inkscape.output.svg.inkscape">
  <metadata
     id="metadata8">
    <rdf:RDF>
      <cc:Work
         rdf:about="">
        <dc:format>image/svg+xml</dc:format>
        <dc:type
           rdf:resource="http://purl.org/dc/dcmitype/StillImage" />
      </cc:Work>
    </rdf:RDF>
  </metadata>
  <sodipodi:namedview
     inkscape:window-height="723"
     inkscape:window-width="1272"
     inkscape:pageshadow="2"
     inkscape:pageopacity="0.0"
     guidetolerance="10.0"
     gridtolerance="10.0"
     objecttolerance="10.0"
     borderopacity="1.0"
     bordercolor="#666666"
     pagecolor="#ffffff"
     id="base"
     showgrid="false"
     inkscape:zoom="3.4599378"
     inkscape:cx="64.005355"
     inkscape:cy="61.592973"
     inkscape:window-x="228"
     inkscape:window-y="323"
     inkscape:current-layer="svg101"
     showguides="true"
     inkscape:guide-bbox="true" />
  <defs
     id="defs103">
    <inkscape:perspective
       sodipodi:type="inkscape:persp3d"
       inkscape:vp_x="0 : 62.5 : 1"
       inkscape:vp_y="0 : 1000 : 0"
       inkscape:vp_z="125 : 62.5 : 1"
       inkscape:persp3d-origin="62.5 : 41.666667 : 1"
       id="perspective10" />
    <inkscape:perspective
       id="perspective2431"
       inkscape:persp3d-origin="62.5 : 41.666667 : 1"
       inkscape:vp_z="125 : 62.5 : 1"
       inkscape:vp_y="0 : 1000 : 0"
       inkscape:vp_x="0 : 62.5 : 1"
       sodipodi:type="inkscape:persp3d" />
  </defs>
  <g
     style="font-size:12;"
     id="g131">
    <path
       d="M 6.2796 6.74281 L 6.2796 118.768 L 118.718 118.768 L 118.718 6.74281 L 6.2796 6.74281 z "
       style="fill:#999999;fill-rule:evenodd;stroke-width:0pt;"
       id="path130" />
    <path
       d="M 14.129 16.3199 L 15.377 20.1419 L 19.381 20.1419 L 12.829 1.1879 L 8.51298 1.1879 L 1.77898 20.1419 L 5.75698 20.1419 L 7.03098 16.3199 L 14.129 16.3199 z M 13.063 13.0699 L 8.12298 13.0699 L 10.593 5.6599 L 13.063 13.0699 z "
       transform="scale(5.90191,5.88718)"
       style="font-size:26;font-weight:bold;fill:#e2bd00;stroke-width:1pt;font-family:Helvetica;"
       id="path129" />
  </g>
  <text
     xml:space="preserve"
     style="font-size:51.34014893px;font-style:normal;font-variant:normal;font-weight:normal;font-stretch:normal;text-align:start;line-height:125%;writing-mode:lr-tb;text-anchor:start;fill:#800080;fill-opacity:1;stroke:none;stroke-width:1px;stroke-linecap:butt;stroke-linejoin:miter;stroke-opacity:1;font-family:Nimbus Roman No9 L;-inkscape-font-specification:Nimbus Roman No9 L"
     x="20.082094"
     y="97.674141"
     id="text2383"
     sodipodi:linespacing="125%"><tspan
       sodipodi:role="line"
       id="tspan2385"
       x="20.082094"
       y="97.674141">P=S</tspan></text>
  <text
     xml:space="preserve"
     style="font-size:81.02272797px;font-style:normal;font-variant:normal;font-weight:normal;font-stretch:normal;text-align:start;line-height:125%;writing-mode:lr-tb;text-anchor:start;fill:#000000;fill-opacity:1;stroke:none;stroke-width:1px;stroke-linecap:butt;stroke-linejoin:miter;stroke-opacity:1;font-family:Nimbus Roman No9 L;-inkscape-font-specification:Nimbus Roman No9 L"
     x="8.6524172"
     y="49.84354"
     id="text2445"
     sodipodi:linespacing="125%"><tspan
       sodipodi:role="line"
       id="tspan2447"
       x="8.6524172"
       y="49.84354">r</tspan></text>
</svg>
